C:\Users\ckerb\OneDrive - HTL Imst\Programmieren\Cryptowallet2\gluon-application\cryptowalletapp\src\main\java\at\hakimst\sample\Main.java
C:\Users\ckerb\OneDrive - HTL Imst\Programmieren\Cryptowallet2\gluon-application\cryptowalletapp\src\main\java\Exceptions\InsufficientAmountException.java
C:\Users\ckerb\OneDrive - HTL Imst\Programmieren\Cryptowallet2\gluon-application\cryptowalletapp\src\main\java\domain\BankAccount.java
C:\Users\ckerb\OneDrive - HTL Imst\Programmieren\Cryptowallet2\gluon-application\cryptowalletapp\src\main\java\Exceptions\GetCurrentPriceException.java
C:\Users\ckerb\OneDrive - HTL Imst\Programmieren\Cryptowallet2\gluon-application\cryptowalletapp\src\main\java\domain\Transaction.java
C:\Users\ckerb\OneDrive - HTL Imst\Programmieren\Cryptowallet2\gluon-application\cryptowalletapp\src\main\java\Exceptions\InsufficientBalanceExeption.java
C:\Users\ckerb\OneDrive - HTL Imst\Programmieren\Cryptowallet2\gluon-application\cryptowalletapp\src\main\java\Exceptions\RetrieveDataException.java
C:\Users\ckerb\OneDrive - HTL Imst\Programmieren\Cryptowallet2\gluon-application\cryptowalletapp\src\main\java\domain\CurrentPriceForCurrency.java
C:\Users\ckerb\OneDrive - HTL Imst\Programmieren\Cryptowallet2\gluon-application\cryptowalletapp\src\main\java\domain\WalletList.java
C:\Users\ckerb\OneDrive - HTL Imst\Programmieren\Cryptowallet2\gluon-application\cryptowalletapp\src\main\java\at\hakimst\sample\MainController.java
C:\Users\ckerb\OneDrive - HTL Imst\Programmieren\Cryptowallet2\gluon-application\cryptowalletapp\src\main\java\Exceptions\SaveDataException.java
C:\Users\ckerb\OneDrive - HTL Imst\Programmieren\Cryptowallet2\gluon-application\cryptowalletapp\src\main\java\infrastruktur\FileDataStore.java
C:\Users\ckerb\OneDrive - HTL Imst\Programmieren\Cryptowallet2\gluon-application\cryptowalletapp\src\main\java\domain\CryptoCurrency.java
C:\Users\ckerb\OneDrive - HTL Imst\Programmieren\Cryptowallet2\gluon-application\cryptowalletapp\src\main\java\domain\DataStore.java
C:\Users\ckerb\OneDrive - HTL Imst\Programmieren\Cryptowallet2\gluon-application\cryptowalletapp\src\main\java\infrastruktur\CurrentCurrencyPrices.java
C:\Users\ckerb\OneDrive - HTL Imst\Programmieren\Cryptowallet2\gluon-application\cryptowalletapp\src\main\java\domain\Wallet.java
C:\Users\ckerb\OneDrive - HTL Imst\Programmieren\Cryptowallet2\gluon-application\cryptowalletapp\src\main\java\Exceptions\InvalidAmountException.java
C:\Users\ckerb\OneDrive - HTL Imst\Programmieren\Cryptowallet2\gluon-application\cryptowalletapp\src\main\java\Exceptions\InvalidFeeException.java
